<?xml version="1.0" encoding="UTF-8"?>
<!-- Generator: Adobe Illustrator 24.0.1, SVG Export Plug-In . SVG Version: 6.00 Build 0)  -->
<svg xmlns="http://www.w3.org/2000/svg" xmlns:xlink="http://www.w3.org/1999/xlink" version="1.1" id="Capa_1" x="0px" y="0px" viewBox="0 0 512 512" style="enable-background:new 0 0 512 512;" xml:space="preserve">
<style type="text/css">
	.st0{fill:#EFEFEF;}
	.st1{fill:#FFFFFF;}
	.st2{fill:#F2FBFF;}
	.st3{fill:#62DBFB;}
	.st4{fill:#D88A55;}
	.st5{fill:#C57A44;}
	.st6{fill:#EA9B58;}
	.st7{fill:#FD4755;}
	.st8{fill:#FB2B3A;}
	.st9{fill:#80D261;}
	.st10{fill:#68CA44;}
	.st11{fill:#DDDDDD;}
	.st12{fill:#535454;}
	.st13{fill:#444443;}
	.st14{fill:#212121;}
	.st15{fill:#FBB03B;}
	.st16{fill:#FF8F00;}
	.st17{fill:#666666;}
	.st18{fill:#F9D698;}
	.st19{fill:#FF3900;}
</style>
<g>
	<path class="st0" d="M386.4,71.3h-78.9v26.4c0,2.8-2.2,5-5,5H132.2c-2.8,0-5-2.2-5-5V71.3H48.4c-2.8,0-5,2.2-5,5v423.2   c0,2.8,2.2,5,5,5h239.8V329c0-2.8,2.2-5,5-5h98.2V76.3C391.4,73.6,389.2,71.3,386.4,71.3z"></path>
	<g>
		<path class="st0" d="M96,499.5V473H83.1c-5.8,0-10.5-4.7-10.5-10.5V71.3H48.3c-2.8,0-5,2.2-5,5v423.2c0,2.8,2.2,5,5,5H101    C98.2,504.5,96,502.3,96,499.5L96,499.5z"></path>
	</g>
	<path class="st1" d="M288.2,329c0-2.8,2.2-5,5-5h61.4V71.3h-48.1v26.4c0,2.2-1.8,4-4,4H132.2c-2.2,0-4-1.8-4-4V71.3H80.1v391.1   c0,1.7,1.3,3,3,3h205V329z"></path>
	<g>
		<path class="st2" d="M122,462.5V71.3H80.1v391.1c0,1.7,1.3,3,3,3H125C123.3,465.5,122,464.1,122,462.5L122,462.5z"></path>
	</g>
	<g>
		<g>
			<path class="st3" d="M124.4,243.4h28.7v28.7h-28.7V243.4z"></path>
		</g>
		<g>
			<path class="st3" d="M124.4,320.3h28.7V349h-28.7V320.3z"></path>
		</g>
		<g>
			<path class="st3" d="M124.4,397.2h28.7v28.7h-28.7V397.2z"></path>
		</g>
	</g>
	<path class="st4" d="M261.6,53.8v-2.1c0-24.4-19.8-44.2-44.2-44.2c-24.4,0-44.2,19.8-44.2,44.2v2.1H261.6z"></path>
	<path class="st5" d="M204.6,53.8v-2.1c0-18.9,11.8-35,28.5-41.3c-4.9-1.9-10.2-2.9-15.7-2.9c-24.4,0-44.2,19.8-44.2,44.2v2.1H204.6   z"></path>
	<g>
		<path class="st6" d="M302.5,102.8H132.2c-2.8,0-5-2.2-5-5v-39c0-2.8,2.2-5,5-5h170.3c2.8,0,5,2.2,5,5v39    C307.5,100.5,305.3,102.8,302.5,102.8z"></path>
	</g>
	<g>
		<path class="st4" d="M169,97.8v-39c0-2.8,2.2-5,5-5h-41.8c-2.8,0-5,2.2-5,5v39c0,2.8,2.2,5,5,5H174    C171.2,102.8,169,100.5,169,97.8z"></path>
	</g>
	<g>
		<g>
			<path class="st7" d="M354.6,324v36.8c0,1.7,1.3,3,3,3h41.6c1.7,0,3-1.3,3-3V324H354.6z"></path>
		</g>
		<g>
			<path class="st8" d="M375.4,360.9V324h-20.8v36.8c0,1.7,1.3,3,3,3h20.8C376.7,363.9,375.4,362.5,375.4,360.9z"></path>
		</g>
	</g>
	<g>
		<g>
			<g>
				<circle class="st9" cx="217.4" cy="179.8" r="46.1"></circle>
			</g>
			<g>
				<path class="st10" d="M202.8,179.8c0-19.9,12.6-36.9,30.3-43.3c-4.9-1.8-10.2-2.8-15.8-2.8c-25.5,0-46.1,20.6-46.1,46.1      s20.6,46.1,46.1,46.1c5.5,0,10.8-1,15.8-2.8C215.5,216.7,202.8,199.8,202.8,179.8L202.8,179.8z"></path>
			</g>
		</g>
	</g>
	<g>
		<path d="M310.3,250.8H181.8c-4.1,0-7.5,3.4-7.5,7.5c0,4.1,3.4,7.5,7.5,7.5h128.6c4.1,0,7.5-3.4,7.5-7.5S314.5,250.8,310.3,250.8    L310.3,250.8z"></path>
		<path d="M310.3,289H181.8c-4.1,0-7.5,3.4-7.5,7.5s3.4,7.5,7.5,7.5h128.6c4.1,0,7.5-3.4,7.5-7.5S314.5,289,310.3,289z"></path>
		<path d="M153.1,235.9h-28.7c-4.1,0-7.5,3.4-7.5,7.5v28.7c0,4.1,3.4,7.5,7.5,7.5h28.7c4.1,0,7.5-3.4,7.5-7.5v-28.7    C160.6,239.2,157.2,235.9,153.1,235.9z M145.6,264.6h-13.7v-13.7h13.7L145.6,264.6z"></path>
		<path d="M153.1,312.8h-28.7c-4.1,0-7.5,3.4-7.5,7.5V349c0,4.1,3.4,7.5,7.5,7.5h28.7c4.1,0,7.5-3.4,7.5-7.5v-28.7    C160.6,316.1,157.2,312.8,153.1,312.8z M145.6,341.5h-13.7v-13.7h13.7L145.6,341.5z"></path>
		<path d="M153.1,389.7h-28.7c-4.1,0-7.5,3.4-7.5,7.5v28.7c0,4.1,3.4,7.5,7.5,7.5h28.7c4.1,0,7.5-3.4,7.5-7.5v-28.7    C160.6,393,157.2,389.7,153.1,389.7z M145.6,418.4h-13.7v-13.7h13.7L145.6,418.4z"></path>
		<path d="M398.9,316.5V76.3c0-6.9-5.6-12.5-12.5-12.5H315v-5c0-6.9-5.6-12.5-12.5-12.5h-33.7C266.1,20.3,244.1,0,217.4,0    s-48.7,20.3-51.4,46.3h-33.7c-6.9,0-12.5,5.6-12.5,12.5v5H48.4c-6.9,0-12.5,5.6-12.5,12.5v423.2c0,6.9,5.6,12.5,12.5,12.5h333.3    c6.9,0,12.5-5.6,12.5-12.5V457c0-4.1-3.4-7.5-7.5-7.5s-7.5,3.4-7.5,7.5v40h-83.5V331.5h51.4v29.3c0,5.8,4.7,10.5,10.5,10.5h41.6    c5.8,0,10.5-4.7,10.5-10.5v-29.3 M217.4,15c18.4,0,33.7,13.6,36.3,31.3h-72.6C183.7,28.6,199,15,217.4,15z M280.7,497H50.9V78.8    h21.8v383.6c0,5.8,4.7,10.5,10.5,10.5h197.5V497z M354.6,232.5c-4.1,0-7.5,3.4-7.5,7.5v76.5h-53.9c-6.2,0-11.4,4.6-12.3,10.6    h-99.1c-4.1,0-7.5,3.4-7.5,7.5s3.4,7.5,7.5,7.5h98.9v23.2h-98.9c-4.1,0-7.5,3.4-7.5,7.5s3.4,7.5,7.5,7.5h98.9v23.2h-98.9    c-4.1,0-7.5,3.4-7.5,7.5s3.4,7.5,7.5,7.5h98.9V458h-193V78.8h32.1v18.9c0,6.9,5.6,12.5,12.5,12.5H175c4.1,0,7.5-3.4,7.5-7.5    s-3.4-7.5-7.5-7.5h-40.3v-34H300v34h-90c-4.1,0-7.5,3.4-7.5,7.5s3.4,7.5,7.5,7.5h92.5c6.9,0,12.5-5.6,12.5-12.5V78.8h32.1V171    c0,4.1,3.4,7.5,7.5,7.5s7.5-3.4,7.5-7.5V78.8h21.8v237.7h-21.8V240C362.1,235.9,358.7,232.5,354.6,232.5L354.6,232.5z     M394.7,356.4h-32.6v-24.8h32.6V356.4z"></path>
		<path d="M217.4,233.4c29.6,0,53.6-24,53.6-53.6s-24-53.6-53.6-53.6s-53.6,24-53.6,53.6S187.8,233.4,217.4,233.4z M217.4,141.3    c21.3,0,38.6,17.3,38.6,38.6s-17.3,38.6-38.6,38.6s-38.6-17.3-38.6-38.6S196.1,141.3,217.4,141.3z"></path>
		<path d="M209.1,198.2c1.4,1.4,3.3,2.2,5.3,2.2s3.9-0.8,5.3-2.2l23.8-23.8c2.9-2.9,2.9-7.7,0-10.6c-2.9-2.9-7.7-2.9-10.6,0    l-18.5,18.5l-12.6-12.6c-2.9-2.9-7.7-2.9-10.6,0s-2.9,7.7,0,10.6L209.1,198.2z"></path>
	</g>
</g>
<g>
	<path class="st0" d="M294.4,195.4c-15.1,0-27.5,12.3-27.5,27.5v238.7c0,15.1,12.3,27.5,27.5,27.5h79V195.4H294.4z"></path>
	<path class="st11" d="M283.3,461.5V222.8c0-15.1,12.3-27.5,27.5-27.5h-16.3c-15.1,0-27.5,12.3-27.5,27.5v238.7   c0,15.1,12.3,27.5,27.5,27.5h16.3C295.6,489,283.3,476.7,283.3,461.5z"></path>
	<path class="st12" d="M297.2,210.7L297.2,210.7c-7.6,0-13.9,6.3-13.9,13.9v32.5c0,7.6,6.3,13.9,13.9,13.9l0,0   c7.6,0,13.9-6.3,13.9-13.9v-32.5C311.1,216.9,304.8,210.7,297.2,210.7z"></path>
	<path class="st13" d="M297.2,257.1v-32.5c0-5.1,2.8-9.6,6.9-12c-9.2-5.4-20.8,1.4-20.8,12v32.5c0,10.6,11.6,17.4,20.8,12   C300,266.7,297.2,262.2,297.2,257.1z"></path>
	<path class="st14" d="M476.5,195.4H373.4c-15.1,0-27.5,12.3-27.5,27.5v238.7c0,15.1,12.3,27.5,27.5,27.5h103.1   c15.1,0,27.5-12.3,27.5-27.5V222.8C504,207.7,491.7,195.4,476.5,195.4z"></path>
	<path d="M361.2,461.5V222.8c0-15.1,12.3-27.5,27.5-27.5h-15.2c-15.1,0-27.5,12.3-27.5,27.5v238.7c0,15.1,12.3,27.5,27.5,27.5h15.2   C373.5,489,361.2,476.7,361.2,461.5z"></path>
	<path class="st15" d="M488.8,461.5c0,6.8-5.5,12.3-12.3,12.3H373.4c-6.8,0-12.3-5.5-12.3-12.3V222.8c0-6.8,5.5-12.3,12.3-12.3h12.8   c2.5,0,4.6,2.1,4.6,4.6v2.9c0,3.9,3.2,7.1,7.1,7.1h54c3.9,0,7.1-3.2,7.1-7.1v-4.2c0-1.8,1.5-3.3,3.3-3.3h14.2   c6.8,0,12.3,5.5,12.3,12.3L488.8,461.5L488.8,461.5z"></path>
	<path class="st16" d="M375.8,461.5V222.8c0-6.4,4.9-11.6,11.2-12.2c-0.7-0.1,0.1-0.1-13.5-0.1c-6.8,0-12.3,5.5-12.3,12.3v238.7   c0,6.8,5.5,12.3,12.3,12.3H388C381.3,473.8,375.8,468.3,375.8,461.5z"></path>
	<g>
		<path class="st1" d="M442.8,215h-23.1c-2.5,0-4.4-2-4.4-4.4c0-2.4,2-4.4,4.4-4.4h23.1c2.5,0,4.4,2,4.4,4.4    C447.2,213,445.3,215,442.8,215z"></path>
		<path class="st1" d="M403.3,214.3c-3.2-2.1-2.4-7.2,1.6-8c2.7-0.6,5.3,1.5,5.3,4.4c0,2.1-1.4,3.9-3.6,4.4    C406.3,215,404.2,214.9,403.3,214.3z"></path>
		<path class="st17" d="M294.7,228.9c-2.1-1.4-2.5-4.2-1.2-6.1c2.4-3.6,8.1-2,8.1,2.5c0,2.1-1.5,4-3.6,4.4    C297.5,229.6,295.8,229.6,294.7,228.9z"></path>
	</g>
	<path class="st18" d="M294.7,244.5c-2.1-1.4-2.5-4.2-1.2-6.1c1.8-2.9,6.4-2.6,7.8,0.7c0.7,1.6,0.3,3.6-1,4.8   C299.3,245,296.5,245.7,294.7,244.5z"></path>
	<path class="st17" d="M294.7,260.2c-2.9-1.9-2.5-6.4,0.7-7.8c4.6-1.8,8.1,3.9,4.8,7.2C299.2,260.8,296.7,261.5,294.7,260.2z"></path>
	<g id="_05-support">
		<g id="linear_color">
			<path class="st19" d="M406.9,373.6l-6.7,5.2l-12.4-12.3l5.2-6.7l-3.5-8.4l-8.4-1v-17.5l8.4-1l3.5-8.4l-5.2-6.7l12.4-12.4l6.7,5.2     l8.4-3.5l1-8.4h17.5l1,8.4l8.4,3.5l6.7-5.2l12.4,12.4l-5.2,6.7l3.5,8.4l8.4,1v17.5l-8.4,1l-3.5,8.4l5.2,6.7l-12.3,12.4l-6.7-5.2     l-8.4,3.5l-1,8.4h-17.5l-1-8.4L406.9,373.6z M436.2,352.8c6.2-6.2,6.2-16.2,0-22.4c-6.2-6.2-16.2-6.2-22.4,0     c-6.2,6.2-6.2,16.2,0,22.4C420.1,359,430,359,436.2,352.8L436.2,352.8z"></path>
			<path d="M411.8,297.1l-0.7,5.8l-3.6,1.5l-4.6-3.6c-1.8-1.4-4.3-1.3-5.9,0.3l-12.4,12.4c-1.6,1.6-1.8,4.1-0.3,5.9l3.6,4.6     l-1.5,3.6l-5.8,0.7c-2.2,0.3-4,2.2-4,4.5v17.5c0,2.2,1.7,4.2,4,4.5l5.8,0.7l1.5,3.6l-3.6,4.6c-1.4,1.8-1.3,4.3,0.3,5.9l12.4,12.4     c1.6,1.6,4.1,1.8,5.9,0.3l4.6-3.6l3.6,1.5l0.7,5.8c0.3,2.2,2.2,4,4.5,4h17.5c2.2,0,4.2-1.7,4.5-4l0.7-5.8l3.6-1.5l4.6,3.6     c1.8,1.4,4.3,1.3,5.9-0.3l12.4-12.4c1.6-1.6,1.8-4.1,0.3-5.9l-3.6-4.6l1.5-3.6l5.8-0.7c2.2-0.3,4-2.2,4-4.5v-17.5     c0-2.2-1.7-4.2-4-4.5l-5.8-0.7l-1.5-3.6l3.6-4.6c1.4-1.8,1.3-4.3-0.3-5.9l-12.4-12.4c-1.6-1.6-4.1-1.8-5.9-0.3l-4.6,3.6L439,303     l-0.7-5.8c-0.3-2.2-2.2-4-4.5-4h-17.5C414,293.2,412.1,294.9,411.8,297.1L411.8,297.1z M429.8,302.2l0.6,4.5     c0.2,1.6,1.3,3,2.8,3.6l8.4,3.5c1.5,0.6,3.2,0.4,4.5-0.6l3.6-2.8l6.8,6.8l-2.8,3.6c-1,1.3-1.2,3-0.6,4.5l3.5,8.4     c0.6,1.5,2,2.5,3.6,2.8l4.5,0.6v9.6l-4.5,0.6c-1.6,0.2-3,1.3-3.6,2.8l-3.5,8.4c-0.6,1.5-0.4,3.2,0.6,4.5l2.8,3.6l-6.8,6.8     l-3.6-2.8c-1.3-1-3-1.2-4.5-0.6l-8.4,3.5c-1.5,0.6-2.5,2-2.8,3.6l-0.6,4.5h-9.6l-0.6-4.5c-0.2-1.6-1.3-3-2.8-3.6l-8.4-3.5     c-1.5-0.6-3.2-0.4-4.5,0.6l-3.6,2.8l-6.8-6.8l2.8-3.6c1-1.3,1.2-3,0.6-4.5l-3.5-8.4c-0.6-1.5-2-2.5-3.6-2.8l-4.5-0.6v-9.6     l4.5-0.6c1.6-0.2,3-1.3,3.6-2.8l3.5-8.4c0.6-1.5,0.4-3.2-0.6-4.5l-2.8-3.6l6.8-6.8l3.6,2.8c1.3,1,3,1.2,4.5,0.6l8.4-3.5     c1.5-0.6,2.5-2,2.8-3.6l0.6-4.5L429.8,302.2z"></path>
			<path d="M404.7,341.6c0,11.2,9.1,20.3,20.4,20.3s20.3-9.1,20.3-20.4s-9.1-20.3-20.4-20.3c-5.4,0-10.6,2.1-14.3,6     C406.9,331.1,404.7,336.2,404.7,341.6z M433.1,333.6c4.4,4.4,4.4,11.6,0,16.1c-4.4,4.4-11.6,4.4-16.1,0s-4.4-11.6,0-16.1l0,0     C421.4,329.2,428.6,329.1,433.1,333.6C433.1,333.5,433.1,333.6,433.1,333.6z"></path>
			<path d="M436.7,402.1c-1.8-1.8-4.6-1.8-6.4,0l0,0c-2.9,2.9-7.6,2.9-10.6,0l0,0c-1.7-1.8-4.6-1.8-6.4,0c-1.8,1.7-1.8,4.6,0,6.4     l0,0c6.4,6.4,16.8,6.4,23.2,0l0,0C438.4,406.6,438.4,403.8,436.7,402.1L436.7,402.1z"></path>
			<path d="M449.4,421.1c1.8-1.7,1.8-4.6,0.1-6.4s-4.6-1.8-6.4-0.1l-0.1,0.1c-9.9,9.9-26,9.9-35.9,0l0,0c-1.8-1.7-4.6-1.7-6.4,0.1     c-1.7,1.7-1.7,4.5,0,6.3C414.1,434.5,435.9,434.5,449.4,421.1C449.3,421.2,449.4,421.1,449.4,421.1z"></path>
			<path d="M412.1,278c0,2.5,2,4.5,4.5,4.5c1.2,0,2.4-0.5,3.2-1.3c2.9-2.9,7.6-2.9,10.6,0l0,0c1.7,1.8,4.6,1.8,6.4,0     c1.8-1.7,1.8-4.6,0-6.4l0,0c-6.4-6.4-16.8-6.4-23.2,0l0,0C412.6,275.7,412.1,276.8,412.1,278L412.1,278z"></path>
			<path d="M399.4,265.3c0,2.5,2,4.5,4.5,4.5c1.2,0,2.4-0.5,3.2-1.3c9.9-9.9,26-9.9,35.9,0l0,0c1.8,1.7,4.6,1.7,6.4-0.1     c1.7-1.7,1.7-4.5,0-6.3c-13.4-13.4-35.1-13.4-48.5,0c0,0,0,0-0.1,0.1C399.9,263,399.4,264.1,399.4,265.3z"></path>
		</g>
	</g>
</g>
</svg>
