<?xml version="1.0" encoding="UTF-8"?>
<!-- Generator: Adobe Illustrator 24.0.1, SVG Export Plug-In . SVG Version: 6.00 Build 0)  -->
<svg xmlns="http://www.w3.org/2000/svg" xmlns:xlink="http://www.w3.org/1999/xlink" version="1.1" id="Capa_1" x="0px" y="0px" viewBox="0 0 512 512" style="enable-background:new 0 0 512 512;" xml:space="preserve">
<style type="text/css">
	.st0{fill:#EFEFEF;}
	.st1{fill:#DDDDDD;}
	.st2{fill:#535454;}
	.st3{fill:#444443;}
	.st4{fill:#212121;}
	.st5{fill:#FBB03B;}
	.st6{fill:#FF8F00;}
	.st7{fill:#FFFFFF;}
	.st8{fill:#666666;}
	.st9{fill:#F9D698;}
	.st10{fill:#FF3900;}
</style>
<path class="st0" d="M97.2,0C70.8,0,49.3,21.5,49.3,47.9v416.2c0,26.4,21.5,47.9,47.9,47.9H235V0H97.2z"></path>
<path class="st1" d="M77.8,464.1V47.9C77.8,21.5,99.3,0,125.7,0H97.2C70.8,0,49.3,21.5,49.3,47.9v416.2c0,26.4,21.5,47.9,47.9,47.9  h28.5C99.3,512,77.8,490.5,77.8,464.1z"></path>
<path class="st2" d="M102.1,26.7L102.1,26.7c-13.3,0-24.2,10.9-24.2,24.2v56.7c0,13.3,10.9,24.2,24.2,24.2l0,0  c13.3,0,24.2-10.9,24.2-24.2V50.9C126.3,37.6,115.4,26.7,102.1,26.7z"></path>
<path class="st3" d="M102.1,107.6V50.9c0-8.9,4.9-16.7,12.1-20.9c-16.1-9.4-36.3,2.4-36.3,20.9v56.7c0,18.5,20.2,30.3,36.3,20.9  C106.9,124.3,102.1,116.5,102.1,107.6z"></path>
<path class="st4" d="M414.8,0H235c-26.4,0-47.9,21.5-47.9,47.9v416.2c0,26.4,21.5,47.9,47.9,47.9h179.8c26.4,0,47.9-21.5,47.9-47.9  V47.9C462.7,21.5,441.2,0,414.8,0z"></path>
<path d="M213.6,464.1V47.9c0-26.4,21.5-47.9,47.9-47.9H235c-26.4,0-47.9,21.5-47.9,47.9v416.2c0,26.4,21.5,47.9,47.9,47.9h26.5  C235.1,512,213.6,490.5,213.6,464.1z"></path>
<path class="st5" d="M436.1,464.1c0,11.8-9.6,21.4-21.4,21.4H235c-11.8,0-21.4-9.6-21.4-21.4V47.9c0-11.8,9.6-21.4,21.4-21.4h22.4  c4.4,0,8,3.6,8,8v5.1c0,6.8,5.6,12.4,12.4,12.4H372c6.8,0,12.4-5.6,12.4-12.4v-7.3c0-3.2,2.6-5.7,5.7-5.7h24.7  c11.8,0,21.4,9.6,21.4,21.4V464.1z"></path>
<path class="st6" d="M239.1,464.1V47.9c0-11.2,8.6-20.3,19.5-21.3c-1.2-0.2,0.1-0.1-23.6-0.1c-11.8,0-21.4,9.6-21.4,21.4v416.2  c0,11.8,9.6,21.4,21.4,21.4h25.5C248.7,485.5,239.1,475.9,239.1,464.1z"></path>
<g>
	<path class="st7" d="M356,34.3h-40.3c-4.3,0-7.7-3.5-7.7-7.7s3.5-7.7,7.7-7.7H356c4.3,0,7.7,3.5,7.7,7.7   C363.7,30.8,360.3,34.3,356,34.3z"></path>
	<path class="st7" d="M287.1,33c-5.5-3.6-4.2-12.5,2.8-14c4.7-1,9.2,2.7,9.2,7.6c0,3.6-2.5,6.8-6.2,7.6   C292.4,34.2,288.6,34,287.1,33z"></path>
	<path class="st8" d="M97.8,58.4c-3.7-2.5-4.4-7.3-2.1-10.7c4.1-6.2,14.1-3.5,14.1,4.3c0,3.7-2.7,6.9-6.2,7.6   C102.6,59.7,99.6,59.6,97.8,58.4z"></path>
</g>
<path class="st9" d="M97.8,85.7c-3.7-2.5-4.4-7.3-2.1-10.7c3.2-5,11.1-4.5,13.6,1.3c1.2,2.8,0.6,6.2-1.7,8.4  C105.7,86.6,100.9,87.8,97.8,85.7z"></path>
<path class="st8" d="M97.8,113c-5.1-3.4-4.4-11.1,1.3-13.6c8.1-3.2,14.2,6.8,8.4,12.6C105.5,114,101.2,115.3,97.8,113z"></path>
<g id="_05-support">
	<g id="linear_color">
		<path class="st10" d="M293.3,310.8l-11.7,9.1L260,298.4l9.1-11.7l-6.1-14.6l-14.7-1.8v-30.5l14.7-1.8l6.1-14.6l-9.1-11.7    l21.6-21.6l11.7,9.1l14.6-6.1l1.8-14.7h30.5l1.8,14.7l14.6,6.1l11.7-9.1l21.6,21.6l-9.1,11.7l6.1,14.6l14.7,1.8v30.5l-14.7,1.8    l-6.1,14.6l9.1,11.7L368.4,320l-11.7-9.1l-14.6,6.1l-1.8,14.7h-30.5l-1.8-14.7L293.3,310.8z M344.5,274.5    c10.8-10.8,10.8-28.3,0-39.1s-28.3-10.8-39.1,0c-10.8,10.8-10.8,28.3,0,39.1C316.3,285.3,333.7,285.3,344.5,274.5    C344.5,274.5,344.5,274.5,344.5,274.5z"></path>
		<path d="M302,177.4l-1.3,10.2l-6.2,2.6l-8.1-6.3c-3.1-2.4-7.5-2.2-10.3,0.6l-21.6,21.6c-2.8,2.8-3.1,7.2-0.6,10.3l6.3,8.1    l-2.6,6.2l-10.2,1.3c-3.9,0.5-6.9,3.8-6.9,7.8v30.5c0,3.9,2.9,7.3,6.9,7.8l10.2,1.3l2.6,6.2l-6.3,8.1c-2.4,3.1-2.2,7.5,0.6,10.3    l21.6,21.6c2.8,2.8,7.2,3.1,10.3,0.6l8.1-6.3l6.2,2.6l1.3,10.2c0.5,3.9,3.8,6.9,7.8,6.9h30.5c3.9,0,7.3-2.9,7.8-6.9l1.3-10.2    l6.2-2.6l8.1,6.3c3.1,2.4,7.5,2.2,10.3-0.6l21.6-21.6c2.8-2.8,3.1-7.2,0.6-10.3l-6.3-8.1l2.6-6.2l10.2-1.3    c3.9-0.5,6.9-3.8,6.9-7.8v-30.5c0-3.9-2.9-7.3-6.9-7.8l-10.2-1.3l-2.6-6.2l6.3-8.1c2.4-3.1,2.2-7.5-0.6-10.3l-21.6-21.6    c-2.8-2.8-7.2-3.1-10.3-0.6l-8.1,6.3l-6.2-2.6l-1.3-10.2c-0.5-3.9-3.8-6.9-7.8-6.9h-30.5C305.8,170.5,302.5,173.5,302,177.4    L302,177.4z M333.3,186.2l1,7.9c0.3,2.8,2.2,5.2,4.8,6.3l14.6,6.1c2.6,1.1,5.6,0.7,7.8-1.1l6.3-4.9l11.8,11.8l-4.9,6.3    c-1.7,2.2-2.1,5.2-1.1,7.8l6.1,14.6c1.1,2.6,3.5,4.4,6.3,4.8l7.9,1v16.7l-7.9,1c-2.8,0.3-5.2,2.2-6.3,4.8l-6.1,14.6    c-1.1,2.6-0.7,5.6,1.1,7.8l4.9,6.3l-11.8,11.8l-6.3-4.9c-2.2-1.7-5.2-2.1-7.8-1.1l-14.6,6.1c-2.6,1.1-4.4,3.5-4.8,6.3l-1,7.9    h-16.7l-1-7.9c-0.3-2.8-2.2-5.2-4.8-6.3l-14.6-6.1c-2.6-1.1-5.6-0.7-7.8,1.1l-6.3,4.9l-11.8-11.8l4.9-6.3c1.7-2.2,2.1-5.2,1.1-7.8    l-6.1-14.6c-1.1-2.6-3.5-4.4-6.3-4.8l-7.9-1v-16.7l7.9-1c2.8-0.3,5.2-2.2,6.3-4.8l6.1-14.6c1.1-2.6,0.7-5.6-1.1-7.8l-4.9-6.3    l11.8-11.8l6.3,4.9c2.2,1.7,5.2,2.1,7.8,1.1l14.6-6.1c2.6-1.1,4.4-3.5,4.8-6.3l1-7.9L333.3,186.2z"></path>
		<path d="M289.6,255c0,19.6,15.9,35.4,35.5,35.4c19.6,0,35.4-15.9,35.4-35.5s-15.9-35.4-35.5-35.4c-9.4,0-18.4,3.7-25,10.4    C293.3,236.6,289.5,245.6,289.6,255z M339,241c7.7,7.7,7.7,20.3,0,28c-7.7,7.7-20.3,7.7-28,0c-7.7-7.7-7.7-20.3,0-28c0,0,0,0,0,0    C318.7,233.3,331.2,233.2,339,241C339,240.9,339,241,339,241z"></path>
		<path d="M345.3,360.4c-3.1-3.1-8-3.1-11.1,0c0,0,0,0,0,0c-5.1,5.1-13.3,5.1-18.4,0c0,0,0,0,0,0c-3-3.1-8-3.1-11.1,0    c-3.1,3-3.1,8,0,11.1c0,0,0,0,0,0c11.2,11.2,29.3,11.2,40.5,0c0,0,0,0,0,0C348.3,368.4,348.3,363.5,345.3,360.4    C345.3,360.4,345.3,360.4,345.3,360.4z"></path>
		<path d="M367.4,393.6c3.1-3,3.1-8,0.1-11.1c-3-3.1-8-3.1-11.1-0.1c0,0-0.1,0.1-0.1,0.1c-17.3,17.3-45.3,17.3-62.6,0c0,0,0,0,0,0    c-3.1-3-8-3-11.1,0.1c-3,3-3,7.9,0,11C306,417,343.9,417,367.4,393.6C367.3,393.7,367.4,393.6,367.4,393.6z"></path>
		<path d="M302.4,144c0,4.3,3.5,7.8,7.8,7.8c2.1,0,4.1-0.8,5.5-2.3c5.1-5.1,13.3-5.1,18.4,0c0,0,0,0,0,0c3,3.1,8,3.1,11.1,0    c3.1-3,3.1-8,0-11.1c0,0,0,0,0,0c-11.2-11.2-29.3-11.2-40.5,0c0,0,0,0,0,0C303.3,140,302.4,142,302.4,144L302.4,144z"></path>
		<path d="M280.3,121.9c0,4.3,3.5,7.8,7.8,7.8c2.1,0,4.1-0.8,5.5-2.3c17.3-17.3,45.3-17.3,62.6,0c0,0,0,0,0,0c3.1,3,8,3,11.1-0.1    c3-3,3-7.9,0-11C344,93,306.1,93,282.7,116.3c0,0,0,0-0.1,0.1C281.2,117.9,280.3,119.8,280.3,121.9z"></path>
	</g>
</g>
</svg>
