<?xml version="1.0" encoding="UTF-8"?>
<!-- Generator: Adobe Illustrator 24.0.1, SVG Export Plug-In . SVG Version: 6.00 Build 0)  -->
<svg xmlns="http://www.w3.org/2000/svg" xmlns:xlink="http://www.w3.org/1999/xlink" version="1.1" id="Capa_1" x="0px" y="0px" viewBox="0 0 512 512" style="enable-background:new 0 0 512 512;" xml:space="preserve">
<style type="text/css">
	.st0{fill:#FF3900;}
	.st1{fill:#BF2B00;}
	.st2{fill:#F4FBFF;}
	.st3{fill:#E4F6FF;}
	.st4{fill:#FF8F00;}
	.st5{fill:#E27D47;}
	.st6{fill:#FBB03B;}
	.st7{fill:#B3E59F;}
	.st8{fill:#95D6A4;}
</style>
<g>
	<path class="st0" d="M456.8,474.2H47.5V116.1c0-10.4,8.5-18.9,18.9-18.9H438c10.4,0,18.9,8.5,18.9,18.9V474.2z"></path>
	<path class="st1" d="M438,97.2h-24.7c10.4,0,18.9,8.5,18.9,18.9v358.2h24.7V116.1C456.8,105.6,448.4,97.2,438,97.2L438,97.2z"></path>
	<path class="st2" d="M346.6,130.9H157.7c-7.8,0-14.1-6.3-14.1-14.1V51.9c0-7.8,6.3-14.1,14.1-14.1h188.9c7.8,0,14.1,6.3,14.1,14.1   v64.9C360.7,124.6,354.4,130.9,346.6,130.9z"></path>
	<path class="st3" d="M346.6,37.8h-23.8c7.8,0,14.1,6.3,14.1,14.1v64.9c0,7.8-6.3,14.1-14.1,14.1h23.8c7.8,0,14.1-6.3,14.1-14.1   V51.9C360.7,44.1,354.4,37.8,346.6,37.8z"></path>
	<path class="st2" d="M92.4,187.3h298.2v287H92.4V187.3z"></path>
	<path class="st3" d="M367,187.3h23.6v287H367V187.3z"></path>
	<path class="st4" d="M92.4,330.7h98v143.5h-98L92.4,330.7z"></path>
	<path class="st5" d="M166.5,330.7h23.9v143.5h-23.9L166.5,330.7z"></path>
	<path class="st6" d="M274.6,307.2h54v167h-54L274.6,307.2z"></path>
	<path class="st4" d="M305.7,307.2h22.9v167h-22.9V307.2z"></path>
	<path class="st7" d="M328.6,379.4h62v94.8h-62V379.4z"></path>
	<path class="st8" d="M367,379.4h23.6v94.8H367V379.4z"></path>
	<g>
		<path d="M147.6,362.7H132c-4.1,0-7.5,3.4-7.5,7.5s3.4,7.5,7.5,7.5h15.5c4.1,0,7.5-3.4,7.5-7.5S151.7,362.7,147.6,362.7z"></path>
		<path d="M174.2,84.4c0,4.1,3.4,7.5,7.5,7.5h22.2c4.1,0,7.5-3.4,7.5-7.5s-3.4-7.5-7.5-7.5h-22.2C177.5,76.9,174.2,80.2,174.2,84.4z    "></path>
		<path d="M322.7,91.9c4.1,0,7.5-3.4,7.5-7.5s-3.4-7.5-7.5-7.5h-92.2c-4.1,0-7.5,3.4-7.5,7.5s3.4,7.5,7.5,7.5H322.7z"></path>
		<path d="M464.3,116.1c0-14.5-11.8-26.4-26.4-26.4h-69.7V51.9c0-12-9.7-21.6-21.6-21.6l-142.9,0c-4.1,0-7.7,3.2-7.8,7.3    c-0.1,4.2,3.3,7.7,7.5,7.7h143.3c3.7,0,6.6,3,6.6,6.6v64.9c0,3.7-3,6.6-6.6,6.6H157.7c-3.6,0-6.6-3-6.6-6.6V51.9    c0-3.7,3-6.6,6.6-6.6l15.4,0c3.8,0,7.2-2.7,7.7-6.5c0.6-4.6-3-8.5-7.4-8.5h-15.6c-11.9,0-21.6,9.7-21.6,21.6v37.8H66.4    c-14.5,0-26.4,11.8-26.4,26.4v358.2c0,4.1,3.4,7.5,7.5,7.5h23.7h385.6c4.1,0,7.5-3.4,7.5-7.5L464.3,116.1z M234,466.7h-36.1v-49.2    c0-4.1-3.3-7.5-7.5-7.5c-4.1,0-7.5,3.4-7.5,7.5v49.2h-83V338.2h83v49.2c0,4.1,3.4,7.5,7.5,7.5s7.5-3.4,7.5-7.5v-56.8    c0-4.1-3.4-7.5-7.5-7.5H99.9V194.8H234V466.7z M321.1,466.7h-39v-152h39V466.7z M383.1,466.7h-47v-79.8h47V466.7z M383.1,371.9    h-47v-64.7c0-4.1-3.3-7.5-7.5-7.5H300V269c0-4.1-3.4-7.5-7.5-7.5c-4.1,0-7.5,3.4-7.5,7.5v30.7h-10.4c-4.1,0-7.5,3.4-7.5,7.5v159.5    H249v-272h134.1V371.9z M449.3,466.7h-51.2v-287H92.4c-4.1,0-7.5,3.4-7.5,7.5v279.5H61.4H55V116.1c0-6.3,5.1-11.4,11.4-11.4h69.7    v12.1c0,11.9,9.7,21.6,21.6,21.6h188.9c11.9,0,21.6-9.7,21.6-21.6v-12.1H438c6.3,0,11.4,5.1,11.4,11.4L449.3,466.7z"></path>
	</g>
</g>
</svg>
